2019-06-11 06:37:47	admin	http://localhost/pw-sysweb/cms/module/?reset=2	Compiled file: /site/modules/FormBuilder/FormBuilder.module
2019-06-11 06:37:47	admin	http://localhost/pw-sysweb/cms/module/?reset=2	Compiled file: /site/modules/FormBuilder/FormBuilderConfig.php
2019-06-11 06:37:47	admin	http://localhost/pw-sysweb/cms/module/?reset=2	Compiled file: /site/modules/FormBuilder/InputfieldFormBuilderFile.module
2019-06-11 06:37:47	admin	http://localhost/pw-sysweb/cms/module/?reset=2	Compiled file: /site/modules/FormBuilder/InputfieldFormBuilder.php
2019-06-11 06:37:48	admin	http://localhost/pw-sysweb/cms/module/?reset=2	Compiled file: /site/modules/FormBuilder/ProcessFormBuilder.module
2019-06-11 06:37:52	admin	http://localhost/pw-sysweb/cms/module/	Compiled file: /site/modules/FormBuilder/FormBuilderMain.php
2019-06-11 06:37:52	admin	http://localhost/pw-sysweb/cms/module/	Compiled file: /site/modules/FormBuilder/FormBuilderForm.php
2019-06-11 06:37:52	admin	http://localhost/pw-sysweb/cms/module/	Compiled file: /site/modules/FormBuilder/FormBuilderEntries.php
2019-06-11 06:37:52	admin	http://localhost/pw-sysweb/cms/module/	Compiled file: /site/modules/FormBuilder/FormBuilderFramework.php
2019-06-11 06:37:52	admin	http://localhost/pw-sysweb/cms/module/	Compiled file: /site/modules/FormBuilder/FormBuilderRender.php
2019-06-11 06:37:52	admin	http://localhost/pw-sysweb/cms/module/	Compiled file: /site/modules/FormBuilder/FormBuilderEmail.php
2019-06-11 06:37:52	admin	http://localhost/pw-sysweb/cms/module/	Compiled file: /site/modules/FormBuilder/FormBuilderInstall.php
2019-06-11 06:38:27	admin	http://localhost/pw-sysweb/cms/setup/form-builder/navJSON/	Compiled file: /site/modules/FormBuilder/FormBuilderProcessor.php
2019-06-11 06:38:35	admin	http://localhost/pw-sysweb/cms/setup/form-builder/editForm/?id=1	Compiled file: /site/modules/FormBuilder/frameworks/FormBuilderFrameworkBasic.php
2019-06-11 06:43:39	admin	http://localhost/pw-sysweb/form-builder/1/?preview=1	Compiled file: /site/templates/form-builder.php
2019-06-11 06:53:08	admin	http://localhost/pw-sysweb/cms/module/?reset=2	Compiled file: /site/modules/ryancramerdesign-ImportPagesCSV-c3ea7f1/ImportPagesCSV.module
2019-06-11 08:30:40	admin	http://localhost/pw-sysweb/cms/setup/form-builder/embedForm?id=1	Compiled file: /site/modules/FormBuilder/ProcessFormBuilderEmbed.php
2019-06-11 09:07:04	admin	http://localhost/pw-sysweb/cms/module/?reset=2	Compiled file: /site/modules/FrontEndEditLightbox-master/FrontEndEditLightbox.module
2019-06-11 09:17:19	admin	http://localhost/pw-sysweb/cms/module/?reset=1	Compiled file: /site/modules/FrontEndEditLightbox/FrontEndEditLightbox.module
2019-06-11 10:16:02	admin	http://localhost/pw-sysweb/cms/module/?reset=2	Compiled file: /site/modules/Pages2Pdf-master/Pages2Pdf.module
2019-06-11 10:16:02	admin	http://localhost/pw-sysweb/cms/module/?reset=2	Compiled file: /site/modules/Pages2Pdf-master/WirePDF.module
